'^([[:space:]][[:space:]]+[[:alnum:]+]+)'   '.' 'g' "$SRC_PATT"
'([[:space:]][[:space:]]+[[:alnum:]+]+)'    '.' 'g' "$SRC_PATT"
'([[:space:]][[:space:]]+)'                 '.' 'g' "$SRC_PATT"
'[[:space:]][[:space:]]+'                   '.' 'g' "$SRC_PATT"
'([[:space:]][[:space:]]+)'                 '.' '2' "$SRC_PATT"
'[[:space:]][[:space:]]+'                   '.' '2' "$SRC_PATT"
